Introduction to Tidy Data w/ R
…
# gapminder::gapminder
str(gapminder)      # Structure of the dataframe

Classes 'tbl_df', 'tbl' and 'data.frame':   1704 obs. of  6 variables:
 $ country  : Factor w/ 142 levels "Afghanistan",..: 1 1 1 1 1 1 1 1 1 1 ...
 $ continent: Factor w/ 5 levels "Africa","Americas",..: 3 3 3 3 3 3 3 3 3 3 ...
 $ year     : int  1952 1957 1962 1967 1972 1977 1982 1987 1992 1997 ...
 $ lifeExp  : num  28.8 30.3 32 34 36.1 ...
 $ pop      : int  8425333 9240934 10267083 11537966 13079460 14880372 12881816 13867957 16317921 22227415 ...
 $ gdpPercap: num  779 821 853 836 740 ...

gapminder           # Data is in a cleaend up 'tibble' format by default

# A tibble: 1,704 x 6
   country     continent  year lifeExp      pop gdpPercap
   <fct>       <fct>     <int>   <dbl>    <int>     <dbl>
 1 Afghanistan Asia       1952    28.8  8425333      779.
 2 Afghanistan Asia       1957    30.3  9240934      821.
 3 Afghanistan Asia       1962    32.0 10267083      853.
 4 Afghanistan Asia       1967    34.0 11537966      836.
 5 Afghanistan Asia       1972    36.1 13079460      740.
 6 Afghanistan Asia       1977    38.4 14880372      786.
 7 Afghanistan Asia       1982    39.9 12881816      978.
 8 Afghanistan Asia       1987    40.8 13867957      852.
 9 Afghanistan Asia       1992    41.7 16317921      649.
10 Afghanistan Asia       1997    41.8 22227415      635.
# ... with 1,694 more rows
…
# A tibble: 6 x 6
  country     continent  year lifeExp      pop gdpPercap
  <fct>       <fct>     <int>   <dbl>    <int>     <dbl>
1 Afghanistan Asia       1952    28.8  8425333      779.
2 Afghanistan Asia       1957    30.3  9240934      821.
3 Afghanistan Asia       1962    32.0 10267083      853.
4 Afghanistan Asia       1967    34.0 11537966      836.
5 Afghanistan Asia       1972    36.1 13079460      740.
6 Afghanistan Asia       1977    38.4 14880372      786.

# Now, filter by year and look at only the data from the year 1962
filter(gapminder, year==1962)

# A tibble: 142 x 6
   country     continent  year lifeExp      pop gdpPercap
   <fct>       <fct>     <int>   <dbl>    <int>     <dbl>
 1 Afghanistan Asia       1962    32.0 10267083      853.
 2 Albania     Europe     1962    64.8  1728137     2313.
 3 Algeria     Africa     1962    48.3 11000948     2551.
 4 Angola      Africa     1962    34    4826015     4269.
 5 Argentina   Americas   1962    65.1 21283783     7133.
 6 Australia   Oceania    1962    70.9 10794968    12217.
 7 Austria     Europe     1962    69.5  7129864    10751.
 8 Bahrain     Asia       1962    56.9   171863    12753.
 9 Bangladesh  Asia       1962    41.2 56839289      686.
10 Belgium     Europe     1962    70.2  9218400    10991.
# ... with 132 more rows

# Can be rewritten using "Piping" %>%
gapminder %>%   # Pipe ('then') operator to serially connect operations
    filter(year==1962)

# A tibble: 142 x 6
   country     continent  year lifeExp      pop gdpPercap
   <fct>       <fct>     <int>   <dbl>    <int>     <dbl>
 1 Afghanistan Asia       1962    32.0 10267083      853.
 2 Albania     Europe     1962    64.8  1728137     2313.
 3 Algeria     Africa     1962    48.3 11000948     2551.
 4 Angola      Africa     1962    34    4826015     4269.
 5 Argentina   Americas   1962    65.1 21283783     7133.
 6 Australia   Oceania    1962    70.9 10794968    12217.
 7 Austria     Europe     1962    69.5  7129864    10751.
 8 Bahrain     Asia       1962    56.9   171863    12753.
 9 Bangladesh  Asia       1962    41.2 56839289      686.
10 Belgium     Europe     1962    70.2  9218400    10991.
# ... with 132 more rows
# Filter for China in 2002
gapminder %>%
  filter(year==2002,country=="China")

# A tibble: 1 x 6
  country continent  year lifeExp        pop gdpPercap
  <fct>   <fct>     <int>   <dbl>      <int>     <dbl>
1 China   Asia       2002    72.0 1280400000     3119.

Select

gapminder %>%
    select(year, country, lifeExp)

# A tibble: 1,704 x 3
    year country     lifeExp
   <int> <fct>         <dbl>
 1  1952 Afghanistan    28.8
 2  1957 Afghanistan    30.3
 3  1962 Afghanistan    32.0
 4  1967 Afghanistan    34.0
 5  1972 Afghanistan    36.1
 6  1977 Afghanistan    38.4
 7  1982 Afghanistan    39.9
 8  1987 Afghanistan    40.8
 9  1992 Afghanistan    41.7
10  1997 Afghanistan    41.8
# ... with 1,694 more rows
…
# A tibble: 6 x 6
  country     continent  year lifeExp      pop gdpPercap
  <fct>       <fct>     <int>   <dbl>    <int>     <dbl>
1 Afghanistan Asia       1952    28.8  8425333      779.
2 Afghanistan Asia       1957    30.3  9240934      821.
3 Afghanistan Asia       1962    32.0 10267083      853.
4 Afghanistan Asia       1967    34.0 11537966      836.
5 Afghanistan Asia       1972    36.1 13079460      740.
6 Afghanistan Asia       1977    38.4 14880372      786.

# Arrange/Sort by Life Expectency
arrange(gapminder, lifeExp) # ascending order

# A tibble: 1,704 x 6
   country      continent  year lifeExp     pop gdpPercap
   <fct>        <fct>     <int>   <dbl>   <int>     <dbl>
 1 Rwanda       Africa     1992    23.6 7290203      737.
 2 Afghanistan  Asia       1952    28.8 8425333      779.
 3 Gambia       Africa     1952    30    284320      485.
 4 Angola       Africa     1952    30.0 4232095     3521.
 5 Sierra Leone Africa     1952    30.3 2143249      880.
 6 Afghanistan  Asia       1957    30.3 9240934      821.
 7 Cambodia     Asia       1977    31.2 6978607      525.
 8 Mozambique   Africa     1952    31.3 6446316      469.
 9 Sierra Leone Africa     1957    31.6 2295678     1004.
10 Burkina Faso Africa     1952    32.0 4469979      543.
# ... with 1,694 more rows

arrange(gapminder, -lifeExp)    # descending order

# A tibble: 1,704 x 6
   country        continent  year lifeExp      pop gdpPercap
   <fct>          <fct>     <int>   <dbl>    <int>     <dbl>
 1 Japan          Asia       2007    82.6   1.27e8    31656.
 2 Hong Kong, Ch Asia       2007    82.2   6.98e6    39725.
 3 Japan          Asia       2002    82     1.27e8    28605.
 4 Iceland        Europe     2007    81.8   3.02e5    36181.
 5 Switzerland    Europe     2007    81.7   7.55e6    37506.
 6 Hong Kong, Ch Asia       2002    81.5   6.76e6    30209.
 7 Australia      Oceania    2007    81.2   2.04e7    34435.
 8 Spain          Europe     2007    80.9   4.04e7    28821.
 9 Sweden         Europe     2007    80.9   9.03e6    33860.
10 Israel         Asia       2007    80.7   6.43e6    25523.
# ... with 1,694 more rows

# Want to rewrite using piping?
gapminder %>%   # Pipe ('then') operator to serially connect operations
    arrange(lifeExp)

# A tibble: 1,704 x 6
   country      continent  year lifeExp     pop gdpPercap
   <fct>        <fct>     <int>   <dbl>   <int>     <dbl>
 1 Rwanda       Africa     1992    23.6 7290203      737.
 2 Afghanistan  Asia       1952    28.8 8425333      779.
 3 Gambia       Africa     1952    30    284320      485.
 4 Angola       Africa     1952    30.0 4232095     3521.
 5 Sierra Leone Africa     1952    30.3 2143249      880.
 6 Afghanistan  Asia       1957    30.3 9240934      821.
 7 Cambodia     Asia       1977    31.2 6978607      525.
 8 Mozambique   Africa     1952    31.3 6446316      469.
 9 Sierra Leone Africa     1957    31.6 2295678     1004.
10 Burkina Faso Africa     1952    32.0 4469979      543.
# ... with 1,694 more rows

# Combining two verbs
gapminder %>%
    filter(year==2007) %>%
    arrange(desc(gdpPercap))

# A tibble: 142 x 6
   country        continent  year lifeExp      pop gdpPercap
   <fct>          <fct>     <int>   <dbl>    <int>     <dbl>
 1 Norway         Europe     2007    80.2   4.63e6    49357.
 2 Kuwait         Asia       2007    77.6   2.51e6    47307.
 3 Singapore      Asia       2007    80.0   4.55e6    47143.
 4 United States  Americas   2007    78.2   3.01e8    42952.
 5 Ireland        Europe     2007    78.9   4.11e6    40676.
 6 Hong Kong, Ch Asia       2007    82.2   6.98e6    39725.
 7 Switzerland    Europe     2007    81.7   7.55e6    37506.
 8 Netherlands    Europe     2007    79.8   1.66e7    36798.
 9 Canada         Americas   2007    80.7   3.34e7    36319.
10 Iceland        Europe     2007    81.8   3.02e5    36181.
# ... with 132 more rows

Mutate

# library(tidyverse)
# library(gapminder)
# Changing existing variables
gapminder %>%
    mutate(pop=pop/1000000)

# A tibble: 1,704 x 6
   country     continent  year lifeExp   pop gdpPercap
   <fct>       <fct>     <int>   <dbl> <dbl>     <dbl>
 1 Afghanistan Asia       1952    28.8  8.43      779.
 2 Afghanistan Asia       1957    30.3  9.24      821.
 3 Afghanistan Asia       1962    32.0 10.3       853.
 4 Afghanistan Asia       1967    34.0 11.5       836.
 5 Afghanistan Asia       1972    36.1 13.1       740.
 6 Afghanistan Asia       1977    38.4 14.9       786.
 7 Afghanistan Asia       1982    39.9 12.9       978.
 8 Afghanistan Asia       1987    40.8 13.9       852.
 9 Afghanistan Asia       1992    41.7 16.3       649.
10 Afghanistan Asia       1997    41.8 22.2       635.
# ... with 1,694 more rows

# Use mutate to change lifeExp to be in months
gapminder %>%
    mutate(lifeExp = lifeExp * 12)

# A tibble: 1,704 x 6
   country     continent  year lifeExp      pop gdpPercap
   <fct>       <fct>     <int>   <dbl>    <int>     <dbl>
 1 Afghanistan Asia       1952    346.  8425333      779.
 2 Afghanistan Asia       1957    364.  9240934      821.
 3 Afghanistan Asia       1962    384. 10267083      853.
 4 Afghanistan Asia       1967    408. 11537966      836.
 5 Afghanistan Asia       1972    433. 13079460      740.
 6 Afghanistan Asia       1977    461. 14880372      786.
 7 Afghanistan Asia       1982    478. 12881816      978.
 8 Afghanistan Asia       1987    490. 13867957      852.
 9 Afghanistan Asia       1992    500. 16317921      649.
10 Afghanistan Asia       1997    501. 22227415      635.
# ... with 1,694 more rows

# Adding new variables
gapminder %>%
    mutate(grossgdp = pop * gdpPercap)

# A tibble: 1,704 x 7
   country continent  year lifeExp    pop gdpPercap grossgdp
   <fct>   <fct>     <int>   <dbl>  <int>     <dbl>    <dbl>
 1 Afghan Asia       1952    28.8 8.43e6      779.  6.57e 9
 2 Afghan Asia       1957    30.3 9.24e6      821.  7.59e 9
 3 Afghan Asia       1962    32.0 1.03e7      853.  8.76e 9
 4 Afghan Asia       1967    34.0 1.15e7      836.  9.65e 9
 5 Afghan Asia       1972    36.1 1.31e7      740.  9.68e 9
 6 Afghan Asia       1977    38.4 1.49e7      786.  1.17e10
 7 Afghan Asia       1982    39.9 1.29e7      978.  1.26e10
 8 Afghan Asia       1987    40.8 1.39e7      852.  1.18e10
 9 Afghan Asia       1992    41.7 1.63e7      649.  1.06e10
10 Afghan Asia       1997    41.8 2.22e7      635.  1.41e10
# ... with 1,694 more rows

# Combing 3 verbs
gapminder %>%
    mutate(grossgdp = pop * gdpPercap) %>%
    filter(year==2007) %>%
    arrange(desc(grossgdp))

# A tibble: 142 x 7
   country continent  year lifeExp    pop gdpPercap grossgdp
   <fct>   <fct>     <int>   <dbl>  <int>     <dbl>    <dbl>
 1 United Americas   2007    78.2 3.01e8    42952.  1.29e13
 2 China   Asia       2007    73.0 1.32e9     4959.  6.54e12
 3 Japan   Asia       2007    82.6 1.27e8    31656.  4.04e12
 4 India   Asia       2007    64.7 1.11e9     2452.  2.72e12
 5 Germany Europe     2007    79.4 8.24e7    32170.  2.65e12
 6 United Europe     2007    79.4 6.08e7    33203.  2.02e12
 7 France  Europe     2007    80.7 6.11e7    30470.  1.86e12
 8 Brazil  Americas   2007    72.4 1.90e8     9066.  1.72e12
 9 Italy   Europe     2007    80.5 5.81e7    28570.  1.66e12
10 Mexico  Americas   2007    76.2 1.09e8    11978.  1.30e12
# ... with 132 more rows
…
# Avg life Exp and total pop in each year and contient
gapminder %>%
    group_by(year,continent) %>% 
  summarize(meanLifeExp = mean(lifeExp),
                    totalPop = sum(as.numeric(pop)))

# A tibble: 60 x 4
# Groups:   year [?]
    year continent meanLifeExp   totalPop
   <int> <fct>           <dbl>      <dbl>
 1  1952 Africa           39.1  237640501
 2  1952 Americas         53.3  345152446
 3  1952 Asia             46.3 1395357351
 4  1952 Europe           64.4  418120846
 5  1952 Oceania          69.3   10686006
 6  1957 Africa           41.3  264837738
 7  1957 Americas         56.0  386953916
 8  1957 Asia             49.3 1562780599
 9  1957 Europe           66.7  437890351
10  1957 Oceania          70.3   11941976
# ... with 50 more rows
…
